{
	"_metadata" : { 
		"page" : 5, 
		"perPage" : 10, 
		"pageCount" : 20, 
		"totalCount" : 521
	},
	"users" : [{"_id":1,"firstName":"Maria","lastName":"Little","status":"active"},
				{"_id":2,"firstName":"Jerry","lastName":"Fowler","status":"active"},
				{"_id":3,"firstName":"Paula","lastName":"Perry","status":"inactive"},
				{"_id":4,"firstName":"Kathy","lastName":"Olson","status":"active"},
				{"_id":5,"firstName":"Howard","lastName":"Bowman","status":"inactive"},
				{"_id":6,"firstName":"Nicole","lastName":"Garmella","status":"inactive"},
				{"_id":7,"firstName":"Annie","lastName":"Carpenter","status":"inactive"},
				{"_id":8,"firstName":"Diana","lastName":"Chavez","status":"active"},
				{"_id":9,"firstName":"Richard","lastName":"Hicks","status":"active"},
				{"_id":10,"firstName":"Betty","lastName":"Mason","status":"active"}]
}